ISO-10303-21;
HEADER;
FILE_DESCRIPTION(('Open CASCADE Model'),'2;1');
FILE_NAME('Open CASCADE Shape Model','2021-03-07T13:05:46',(
    'CAD Processor'),('OPEN CASCADE S.A.S'),
  'Open CASCADE STEP processor 7.4','CAD Processor','Unknown');
FILE_SCHEMA(('AUTOMOTIVE_DESIGN { 1 0 10303 214 1 1 1 1 }'));
ENDSEC;
DATA;
#1 = APPLICATION_PROTOCOL_DEFINITION('international standard',
  'automotive_design',2000,#2);
#2 = APPLICATION_CONTEXT(
  'core data for automotive mechanical design processes');
#3 = SHAPE_DEFINITION_REPRESENTATION(#4,#10);
#4 = PRODUCT_DEFINITION_SHAPE('','',#5);
#5 = PRODUCT_DEFINITION('design','',#6,#9);
#6 = PRODUCT_DEFINITION_FORMATION('','',#7);
#7 = PRODUCT('main_assembly','main_assembly','',(#8));
#8 = PRODUCT_CONTEXT('',#2,'mechanical');
#9 = PRODUCT_DEFINITION_CONTEXT('part definition',#2,'design');
#10 = ADVANCED_BREP_SHAPE_REPRESENTATION('',(#11,#15),#165);
#11 = AXIS2_PLACEMENT_3D('',#12,#13,#14);
#12 = CARTESIAN_POINT('',(0.E+000,0.E+000,0.E+000));
#13 = DIRECTION('',(0.E+000,0.E+000,1.));
#14 = DIRECTION('',(1.,0.E+000,-0.E+000));
#15 = MANIFOLD_SOLID_BREP('',#16);
#16 = CLOSED_SHELL('',(#17,#57,#97,#119,#141,#153));
#17 = ADVANCED_FACE('',(#18),#52,.F.);
#18 = FACE_BOUND('',#19,.F.);
#19 = EDGE_LOOP('',(#20,#30,#38,#46));
#20 = ORIENTED_EDGE('',*,*,#21,.F.);
#21 = EDGE_CURVE('',#22,#24,#26,.T.);
#22 = VERTEX_POINT('',#23);
#23 = CARTESIAN_POINT('',(0.E+000,0.E+000,0.E+000));
#24 = VERTEX_POINT('',#25);
#25 = CARTESIAN_POINT('',(0.E+000,0.E+000,1.));
#26 = LINE('',#27,#28);
#27 = CARTESIAN_POINT('',(0.E+000,0.E+000,0.E+000));
#28 = VECTOR('',#29,1.);
#29 = DIRECTION('',(0.E+000,0.E+000,1.));
#30 = ORIENTED_EDGE('',*,*,#31,.T.);
#31 = EDGE_CURVE('',#22,#32,#34,.T.);
#32 = VERTEX_POINT('',#33);
#33 = CARTESIAN_POINT('',(0.E+000,1.,0.E+000));
#34 = LINE('',#35,#36);
#35 = CARTESIAN_POINT('',(0.E+000,0.E+000,0.E+000));
#36 = VECTOR('',#37,1.);
#37 = DIRECTION('',(0.E+000,1.,0.E+000));
#38 = ORIENTED_EDGE('',*,*,#39,.T.);
#39 = EDGE_CURVE('',#32,#40,#42,.T.);
#40 = VERTEX_POINT('',#41);
#41 = CARTESIAN_POINT('',(0.E+000,1.,1.));
#42 = LINE('',#43,#44);
#43 = CARTESIAN_POINT('',(0.E+000,1.,0.E+000));
#44 = VECTOR('',#45,1.);
#45 = DIRECTION('',(0.E+000,0.E+000,1.));
#46 = ORIENTED_EDGE('',*,*,#47,.F.);
#47 = EDGE_CURVE('',#24,#40,#48,.T.);
#48 = LINE('',#49,#50);
#49 = CARTESIAN_POINT('',(0.E+000,0.E+000,1.));
#50 = VECTOR('',#51,1.);
#51 = DIRECTION('',(0.E+000,1.,0.E+000));
#52 = PLANE('',#53);
#53 = AXIS2_PLACEMENT_3D('',#54,#55,#56);
#54 = CARTESIAN_POINT('',(0.E+000,0.E+000,0.E+000));
#55 = DIRECTION('',(1.,0.E+000,0.E+000));
#56 = DIRECTION('',(0.E+000,0.E+000,1.));
#57 = ADVANCED_FACE('',(#58),#92,.T.);
#58 = FACE_BOUND('',#59,.T.);
#59 = EDGE_LOOP('',(#60,#70,#78,#86));
#60 = ORIENTED_EDGE('',*,*,#61,.F.);
#61 = EDGE_CURVE('',#62,#64,#66,.T.);
#62 = VERTEX_POINT('',#63);
#63 = CARTESIAN_POINT('',(1.,0.E+000,0.E+000));
#64 = VERTEX_POINT('',#65);
#65 = CARTESIAN_POINT('',(1.,0.E+000,1.));
#66 = LINE('',#67,#68);
#67 = CARTESIAN_POINT('',(1.,0.E+000,0.E+000));
#68 = VECTOR('',#69,1.);
#69 = DIRECTION('',(0.E+000,0.E+000,1.));
#70 = ORIENTED_EDGE('',*,*,#71,.T.);
#71 = EDGE_CURVE('',#62,#72,#74,.T.);
#72 = VERTEX_POINT('',#73);
#73 = CARTESIAN_POINT('',(1.,1.,0.E+000));
#74 = LINE('',#75,#76);
#75 = CARTESIAN_POINT('',(1.,0.E+000,0.E+000));
#76 = VECTOR('',#77,1.);
#77 = DIRECTION('',(0.E+000,1.,0.E+000));
#78 = ORIENTED_EDGE('',*,*,#79,.T.);
#79 = EDGE_CURVE('',#72,#80,#82,.T.);
#80 = VERTEX_POINT('',#81);
#81 = CARTESIAN_POINT('',(1.,1.,1.));
#82 = LINE('',#83,#84);
#83 = CARTESIAN_POINT('',(1.,1.,0.E+000));
#84 = VECTOR('',#85,1.);
#85 = DIRECTION('',(0.E+000,0.E+000,1.));
#86 = ORIENTED_EDGE('',*,*,#87,.F.);
#87 = EDGE_CURVE('',#64,#80,#88,.T.);
#88 = LINE('',#89,#90);
#89 = CARTESIAN_POINT('',(1.,0.E+000,1.));
#90 = VECTOR('',#91,1.);
#91 = DIRECTION('',(0.E+000,1.,0.E+000));
#92 = PLANE('',#93);
#93 = AXIS2_PLACEMENT_3D('',#94,#95,#96);
#94 = CARTESIAN_POINT('',(1.,0.E+000,0.E+000));
#95 = DIRECTION('',(1.,0.E+000,0.E+000));
#96 = DIRECTION('',(0.E+000,0.E+000,1.));
#97 = ADVANCED_FACE('',(#98),#114,.F.);
#98 = FACE_BOUND('',#99,.F.);
#99 = EDGE_LOOP('',(#100,#106,#107,#113));
#100 = ORIENTED_EDGE('',*,*,#101,.F.);
#101 = EDGE_CURVE('',#22,#62,#102,.T.);
#102 = LINE('',#103,#104);
#103 = CARTESIAN_POINT('',(0.E+000,0.E+000,0.E+000));
#104 = VECTOR('',#105,1.);
#105 = DIRECTION('',(1.,0.E+000,0.E+000));
#106 = ORIENTED_EDGE('',*,*,#21,.T.);
#107 = ORIENTED_EDGE('',*,*,#108,.T.);
#108 = EDGE_CURVE('',#24,#64,#109,.T.);
#109 = LINE('',#110,#111);
#110 = CARTESIAN_POINT('',(0.E+000,0.E+000,1.));
#111 = VECTOR('',#112,1.);
#112 = DIRECTION('',(1.,0.E+000,0.E+000));
#113 = ORIENTED_EDGE('',*,*,#61,.F.);
#114 = PLANE('',#115);
#115 = AXIS2_PLACEMENT_3D('',#116,#117,#118);
#116 = CARTESIAN_POINT('',(0.E+000,0.E+000,0.E+000));
#117 = DIRECTION('',(0.E+000,1.,0.E+000));
#118 = DIRECTION('',(0.E+000,-0.E+000,1.));
#119 = ADVANCED_FACE('',(#120),#136,.T.);
#120 = FACE_BOUND('',#121,.T.);
#121 = EDGE_LOOP('',(#122,#128,#129,#135));
#122 = ORIENTED_EDGE('',*,*,#123,.F.);
#123 = EDGE_CURVE('',#32,#72,#124,.T.);
#124 = LINE('',#125,#126);
#125 = CARTESIAN_POINT('',(0.E+000,1.,0.E+000));
#126 = VECTOR('',#127,1.);
#127 = DIRECTION('',(1.,0.E+000,0.E+000));
#128 = ORIENTED_EDGE('',*,*,#39,.T.);
#129 = ORIENTED_EDGE('',*,*,#130,.T.);
#130 = EDGE_CURVE('',#40,#80,#131,.T.);
#131 = LINE('',#132,#133);
#132 = CARTESIAN_POINT('',(0.E+000,1.,1.));
#133 = VECTOR('',#134,1.);
#134 = DIRECTION('',(1.,0.E+000,0.E+000));
#135 = ORIENTED_EDGE('',*,*,#79,.F.);
#136 = PLANE('',#137);
#137 = AXIS2_PLACEMENT_3D('',#138,#139,#140);
#138 = CARTESIAN_POINT('',(0.E+000,1.,0.E+000));
#139 = DIRECTION('',(0.E+000,1.,0.E+000));
#140 = DIRECTION('',(0.E+000,-0.E+000,1.));
#141 = ADVANCED_FACE('',(#142),#148,.F.);
#142 = FACE_BOUND('',#143,.F.);
#143 = EDGE_LOOP('',(#144,#145,#146,#147));
#144 = ORIENTED_EDGE('',*,*,#31,.F.);
#145 = ORIENTED_EDGE('',*,*,#101,.T.);
#146 = ORIENTED_EDGE('',*,*,#71,.T.);
#147 = ORIENTED_EDGE('',*,*,#123,.F.);
#148 = PLANE('',#149);
#149 = AXIS2_PLACEMENT_3D('',#150,#151,#152);
#150 = CARTESIAN_POINT('',(0.E+000,0.E+000,0.E+000));
#151 = DIRECTION('',(0.E+000,0.E+000,1.));
#152 = DIRECTION('',(1.,0.E+000,-0.E+000));
#153 = ADVANCED_FACE('',(#154),#160,.T.);
#154 = FACE_BOUND('',#155,.T.);
#155 = EDGE_LOOP('',(#156,#157,#158,#159));
#156 = ORIENTED_EDGE('',*,*,#47,.F.);
#157 = ORIENTED_EDGE('',*,*,#108,.T.);
#158 = ORIENTED_EDGE('',*,*,#87,.T.);
#159 = ORIENTED_EDGE('',*,*,#130,.F.);
#160 = PLANE('',#161);
#161 = AXIS2_PLACEMENT_3D('',#162,#163,#164);
#162 = CARTESIAN_POINT('',(0.E+000,0.E+000,1.));
#163 = DIRECTION('',(0.E+000,0.E+000,1.));
#164 = DIRECTION('',(1.,0.E+000,-0.E+000));
#165 = ( GEOMETRIC_REPRESENTATION_CONTEXT(3) 
GLOBAL_UNCERTAINTY_ASSIGNED_CONTEXT((#169)) GLOBAL_UNIT_ASSIGNED_CONTEXT
((#166,#167,#168)) REPRESENTATION_CONTEXT('Context #1',
  '3D Context with UNIT and UNCERTAINTY') );
#166 = ( LENGTH_UNIT() NAMED_UNIT(*) SI_UNIT(.MILLI.,.METRE.) );
#167 = ( NAMED_UNIT(*) PLANE_ANGLE_UNIT() SI_UNIT($,.RADIAN.) );
#168 = ( NAMED_UNIT(*) SI_UNIT($,.STERADIAN.) SOLID_ANGLE_UNIT() );
#169 = UNCERTAINTY_MEASURE_WITH_UNIT(LENGTH_MEASURE(1.E-007),#166,
  'distance_accuracy_value','confusion accuracy');
#170 = PRODUCT_RELATED_PRODUCT_CATEGORY('part',$,(#7));
#171 = MECHANICAL_DESIGN_GEOMETRIC_PRESENTATION_REPRESENTATION('',(#172,
    #184,#195,#206,#217,#228),#165);
#172 = STYLED_ITEM('color',(#173),#17);
#173 = PRESENTATION_STYLE_ASSIGNMENT((#174,#182));
#174 = SURFACE_STYLE_USAGE(.BOTH.,#175);
#175 = SURFACE_SIDE_STYLE('',(#176,#180));
#176 = SURFACE_STYLE_FILL_AREA(#177);
#177 = FILL_AREA_STYLE('',(#178));
#178 = FILL_AREA_STYLE_COLOUR('',#179);
#179 = DRAUGHTING_PRE_DEFINED_COLOUR('red');
#180 = SURFACE_STYLE_RENDERING_WITH_PROPERTIES(.NORMAL_SHADING.,#179,(
    #181));
#181 = SURFACE_STYLE_TRANSPARENT(0.339999973774);
#182 = CURVE_STYLE('',#183,POSITIVE_LENGTH_MEASURE(0.1),#179);
#183 = DRAUGHTING_PRE_DEFINED_CURVE_FONT('continuous');
#184 = STYLED_ITEM('color',(#185),#57);
#185 = PRESENTATION_STYLE_ASSIGNMENT((#186,#193));
#186 = SURFACE_STYLE_USAGE(.BOTH.,#187);
#187 = SURFACE_SIDE_STYLE('',(#188,#191));
#188 = SURFACE_STYLE_FILL_AREA(#189);
#189 = FILL_AREA_STYLE('',(#190));
#190 = FILL_AREA_STYLE_COLOUR('',#179);
#191 = SURFACE_STYLE_RENDERING_WITH_PROPERTIES(.NORMAL_SHADING.,#179,(
    #192));
#192 = SURFACE_STYLE_TRANSPARENT(0.339999973774);
#193 = CURVE_STYLE('',#194,POSITIVE_LENGTH_MEASURE(0.1),#179);
#194 = DRAUGHTING_PRE_DEFINED_CURVE_FONT('continuous');
#195 = STYLED_ITEM('color',(#196),#97);
#196 = PRESENTATION_STYLE_ASSIGNMENT((#197,#204));
#197 = SURFACE_STYLE_USAGE(.BOTH.,#198);
#198 = SURFACE_SIDE_STYLE('',(#199,#202));
#199 = SURFACE_STYLE_FILL_AREA(#200);
#200 = FILL_AREA_STYLE('',(#201));
#201 = FILL_AREA_STYLE_COLOUR('',#179);
#202 = SURFACE_STYLE_RENDERING_WITH_PROPERTIES(.NORMAL_SHADING.,#179,(
    #203));
#203 = SURFACE_STYLE_TRANSPARENT(0.339999973774);
#204 = CURVE_STYLE('',#205,POSITIVE_LENGTH_MEASURE(0.1),#179);
#205 = DRAUGHTING_PRE_DEFINED_CURVE_FONT('continuous');
#206 = STYLED_ITEM('color',(#207),#119);
#207 = PRESENTATION_STYLE_ASSIGNMENT((#208,#215));
#208 = SURFACE_STYLE_USAGE(.BOTH.,#209);
#209 = SURFACE_SIDE_STYLE('',(#210,#213));
#210 = SURFACE_STYLE_FILL_AREA(#211);
#211 = FILL_AREA_STYLE('',(#212));
#212 = FILL_AREA_STYLE_COLOUR('',#179);
#213 = SURFACE_STYLE_RENDERING_WITH_PROPERTIES(.NORMAL_SHADING.,#179,(
    #214));
#214 = SURFACE_STYLE_TRANSPARENT(0.339999973774);
#215 = CURVE_STYLE('',#216,POSITIVE_LENGTH_MEASURE(0.1),#179);
#216 = DRAUGHTING_PRE_DEFINED_CURVE_FONT('continuous');
#217 = STYLED_ITEM('color',(#218),#141);
#218 = PRESENTATION_STYLE_ASSIGNMENT((#219,#226));
#219 = SURFACE_STYLE_USAGE(.BOTH.,#220);
#220 = SURFACE_SIDE_STYLE('',(#221,#224));
#221 = SURFACE_STYLE_FILL_AREA(#222);
#222 = FILL_AREA_STYLE('',(#223));
#223 = FILL_AREA_STYLE_COLOUR('',#179);
#224 = SURFACE_STYLE_RENDERING_WITH_PROPERTIES(.NORMAL_SHADING.,#179,(
    #225));
#225 = SURFACE_STYLE_TRANSPARENT(0.339999973774);
#226 = CURVE_STYLE('',#227,POSITIVE_LENGTH_MEASURE(0.1),#179);
#227 = DRAUGHTING_PRE_DEFINED_CURVE_FONT('continuous');
#228 = STYLED_ITEM('color',(#229),#153);
#229 = PRESENTATION_STYLE_ASSIGNMENT((#230,#237));
#230 = SURFACE_STYLE_USAGE(.BOTH.,#231);
#231 = SURFACE_SIDE_STYLE('',(#232,#235));
#232 = SURFACE_STYLE_FILL_AREA(#233);
#233 = FILL_AREA_STYLE('',(#234));
#234 = FILL_AREA_STYLE_COLOUR('',#179);
#235 = SURFACE_STYLE_RENDERING_WITH_PROPERTIES(.NORMAL_SHADING.,#179,(
    #236));
#236 = SURFACE_STYLE_TRANSPARENT(0.339999973774);
#237 = CURVE_STYLE('',#238,POSITIVE_LENGTH_MEASURE(0.1),#179);
#238 = DRAUGHTING_PRE_DEFINED_CURVE_FONT('continuous');
ENDSEC;
END-ISO-10303-21;
